1 10 20
100 200 125
201 210 89
900 1000 174
10 1 20
1 1 1
102 102 26
327 327 144
95033 337844 443
31195 997535 525
88184 156726 383
39237 4429 324
66911 831326 509
71877 630118 509
91221 590277 470
48174 488580 449
75746 417141 449
93424 647453 509
29120 978959 525
43776 116796 354
47842 269868 443
70174 822013 509
11539 553363 470
69158 942401 525
52164 954876 525
67647 782411 509
99952 346315 443
96988 734508 509
84899 182650 383
32998 928018 525
57697 985246 525
37039 572793 470
91683 375400 443
69863 65119 312
12785 128063 354
76319 593592 470
97597 58400 351
41987 832354 509
14655 149224 375
24538 839941 525
7071 125648 354
17306 877950 525
2885 426807 449
36675 566607 470
38651 269494 443
38071 930 324
24424 469240 449
49306 996022 525
84141 968549 525
10846 610543 470
92896 911960 525
34974 129496 354
64006 722598 509
84462 412453 449
89291 618067 470
77839 98987 338
82387 116866 354
50 848164 525
80866 159695 383
82111 969941 525
50834 279880 443
26148 564922 470
67772 677386 509
97206 789827 509
95831 956718 525
61949 773250 509
36579 938890 525
54883 915138 525
12034 872839 525
78565 855970 525
70486 87746 351
42585 79421 351
3502 620095 470
68632 492973 449
24742 65266 340
39131 606020 470
61262 302950 443
65828 522814 470
24547 175988 383
17423 491639 449
47998 632318 509
92143 626991 509
16113 907715 525
42385 298239 443
28491 8425 308
24604 643598 509
11476 197894 383
67336 851767 525
51294 122719 354
98594 400843 443
23318 805373 509
33450 997420 525
98807 398418 443
74549 874855 525
35234 777107 509
39433 954913 525
57303 874512 525
72445 222056 386
34312 546230 470
55825 680344 509
4052 692273 509
65986 221882 386
12152 499610 449
86235 398811 443
50978 971270 525
82577 516330 470
20409 93006 351
90003 200661 383
2079 570066 470
29779 72146 340
1852 567119 470
7260 430817 449
89049 105065 341
68978 468862 449
88736 687650 509
92657 540273 470
26818 639802 509
23779 935196 525
35910 455353 449
32930 355658 443
70845 561397 470
26400 22216 282
99196 730526 509
94281 315704 443
68194 612277 470
47141 353240 443
47072 472316 449
69864 749728 509
12439 2143 268
55242 752652 509
57501 72796 335
45545 207391 383
33996 918723 525
96999 182284 383
35531 642660 509
61736 978651 525
35850 54136 340
73315 108787 354
72906 473233 449
42712 154918 375
2091 556946 470
32774 157451 383
99790 670386 509
20433 229172 386
76574 605533 470
8831 438117 449
86886 100381 341
40005 459257 449
6171 650382 509
81809 516236 470
60776 701246 509
15869 517361 470
98472 877238 525
82331 503095 449
61808 229753 386
4163 388141 443
56241 67395 335
34622 688205 509
33400 224732 386
81763 421345 449
30949 739473 509
22961 217012 386
86499 68496 351
88141 695906 509
43218 709725 509
95000 282775 443
75368 246048 443
82710 24819 351
78676 433399 449
48936 287872 443
90442 393117 443
79947 810409 509
67074 232362 443
37037 341004 443
28791 711367 509
7124 303727 443
31448 572070 470
74957 397552 443
30752 386212 443
27750 729272 509
35711 441358 449
8910 563423 470
79506 287538 443
29658 872978 525
77374 445246 449
48513 164160 383
78461 270725 443
33844 787293 509
37852 537267 470
31628 159426 383
66925 121491 354
9869 937425 525
9436 509009 449
6753 413069 449
44733 665894 509
49959 750046 509
77997 99577 338
45124 377918 443
68682 391598 443
4592 551420 470
766 856251 525
4469 662441 509
35911 460876 449
59975 678636 509
91518 365450 443
92926 137516 354
32205 449338 449
53745 439962 449
19132 514006 470
90434 263403 443
88100 131395 354
55071 421605 449
69773 91235 351
72644 212144 383
2879 773132 509
61785 57542 335
29598 789195 509
87080 640070 509
36821 2705 324
59850 947730 525
41639 248921 443
40889 529850 470
2053 213931 383
82946 227849 386
89342 332997 443
59185 962944 525
58075 635591 509
31248 245201 443
32525 182509 383
77769 885801 525
58237 212049 383
39206 570534 470
25747 947810 525
78314 107982 354
54094 943230 525
82014 694080 509
14355 387052 443
57018 486314 449
11717 590052 470
78715 960092 525
82649 16005 351
86094 821728 509
59574 784927 509
20468 541524 470
26461 770662 509
66848 541387 470
732 919512 525
35544 736167 509
57728 451730 449
42051 770251 509
