1000 1000 112
346893 244658 441
533378 517754 439
617494 741664 509
176392 276956 443
956145 239483 525
117413 3157 354
245329 846569 525
909289 19800 525
748606 728388 424
40684 19501 324
296780 635887 509
272032 854800 525
594933 632894 509
68568 968953 525
201565 911724 525
148852 670988 509
517108 630280 509
281538 956384 525
811525 904080 525
983605 727993 525
919322 443124 525
700038 81425 509
735172 836180 468
377950 784935 509
54505 154050 375
87403 205925 383
620778 368521 470
486690 714466 509
464796 65214 449
481585 28856 449
751302 66178 509
386096 59024 443
384241 872064 525
256500 550662 470
564420 283898 470
840956 236307 525
341983 170896 443
763741 259124 509
960948 113504 525
146163 351022 443
454234 569741 470
855470 618739 525
514938 288154 470
968589 819912 525
143314 922124 525
839244 695667 525
948724 187972 525
365073 267125 441
272031 453213 449
665576 266 509
486212 341597 449
402246 396921 387
931690 797890 525
399000 879241 525
947674 68173 525
54027 800782 509
372007 220288 443
273427 39463 443
699349 154305 509
302539 905929 525
811203 534311 509
882575 35452 525
821116 710524 468
618244 522297 452
114587 494676 449
306243 802589 509
105535 601797 470
245059 694985 509
579866 678009 509
223227 568074 470
751515 96584 509
966256 819221 525
317504 123514 443
311643 721650 509
865923 629007 525
276919 224871 443
964387 252769 525
487455 478151 413
136384 818650 509
138720 687518 509
719085 838154 525
781968 413881 509
288563 142512 443
742837 573156 509
936980 39472 525
909092 208869 525
191226 903652 525
956755 573513 525
773570 778250 437
823135 177024 509
722338 391068 509
380750 239043 441
614189 969316 525
817925 416222 509
759496 375310 509
189835 766624 509
278462 379111 441
968025 660371 525
907962 334406 525
186952 748983 509
237756 130322 443
962841 165452 525
829601 54578 509
743182 842877 525
333908 122343 443
634392 211605 509
285982 500325 449
550768 563083 421
737523 887101 525
729516 53268 509
258932 98375 443
364716 659193 509
134112 649775 509
727318 399405 509
761831 830054 468
158767 782286 509
376355 613936 470
752618 755858 424
204919 776592 509
371521 398468 436
90776 740658 509
886188 211849 525
427900 11905 449
168489 156342 370
977099 541108 525
422563 502668 444
763128 987380 525
895850 165426 525
788578 652153 504
876200 430581 525
742648 803199 468
151718 892546 525
231578 214533 443
786780 975971 525
312384 10724 443
150658 633253 509
272680 323095 389
624409 680776 509
666741 840481 525
307280 765271 509
591610 68663 470
345528 136216 443
66922 287 340
214661 241026 443
168256 941037 525
400295 656876 509
256218 438010 449
443375 26279 449
242061 612677 470
242225 473152 449
335575 713552 509
836940 441899 509
132072 372588 443
640870 24107 509
212699 874532 525
229434 615802 470
655930 729948 504
348322 182747 443
987993 980234 427
761068 502092 509
136079 957009 525
920313 495783 525
890611 668339 525
217518 174425 386
231467 590792 470
742704 769871 468
627890 408971 509
68762 350650 443
83045 163118 383
564136 586390 434
261461 340598 407
133236 355729 443
511312 678503 509
85622 576775 470
973319 832304 525
43074 979988 525
254219 609450 470
407879 540444 470
335119 166978 443
936204 939729 507
483683 428663 444
387152 737341 509
943990 989937 458
51117 897216 525
89025 947720 525
200342 937140 525
538154 417539 470
150034 247092 443
465578 981737 525
670194 57123 509
955609 950273 414
946314 126240 525
796783 109551 509
151344 470779 449
549189 584919 434
961841 354125 525
68019 548948 470
27996 319155 443
921249 770237 525
490183 260652 449
300471 416491 449
124014 406970 443
91287 100792 341
591309 608561 403
743319 891434 525
576211 515556 452
459757 893375 525
293647 67403 443
12507 53314 340
971613 214624 525
181376 40611 383
429254 946114 525
414394 412686 374
799484 504910 509
811191 786239 468
777886 141242 509
942567 404594 525
518890 873720 525
336697 316632 384
445749 507820 444
686087 364264 509
792576 595417 509
959283 313054 525
654710 109958 509
637446 754568 504
687962 358860 509
238288 859218 525
367758 58155 443
138542 664801 509
896005 553848 525
460943 348655 449
426471 890381 525
452921 850273 525
268737 798595 509
351497 286427 441
126314 703943 509
202593 832283 509
226240 540256 470
482782 129724 449
405498 495186 449
657679 827972 504
833856 810546 450
3528 561875 470
73225 414039 449
117199 529613 470
600403 468486 470
544678 844292 525
753072 890459 525
869253 2855 525
298176 512293 470
